Computer_Ogranisation_Lab/projects/mux/mux.sim/sim_1/behav/xsim/simulate.log
Vivado Simulator 2018.3
Time resolution is 1 ps
1010001011011010  0 0
1010001011011010  1 1
1010001011011010  2 0
1010001011011010  3 1
1010001011011010  4 1
1010001011011010  5 0
1010001011011010  6 1
1010001011011010  7 1
1010001011011010  8 0
1010001011011010  9 1
1010001011011010 10 0
1010001011011010 11 0
1010001011011010 12 0
1010001011011010 13 1
1010001011011010 14 0
1010001011011010 15 1
$finish called at time : 80 ns : File "/home/avijit/study_material/Computer_Ogranisation_Lab/projects/mux/mux.srcs/sim_1/new/mux_tb.v" Line 33
